<svg xmlns="http://www.w3.org/2000/svg" viewBox="0 0 19.2 18.607">
  <defs>
    <style>
      .cls-1 {
        fill: #fff;
      }
    </style>
  </defs>
  <g id="Group_151" data-name="Group 151" transform="translate(-789.435 -6281.395)">
    <rect id="Rectangle_715" data-name="Rectangle 715" class="cls-1" width="5.199" height="18.607" rx="1" transform="translate(803.436 6281.395)"/>
    <rect id="Rectangle_716" data-name="Rectangle 716" class="cls-1" width="5.199" height="6.939" rx="1" transform="translate(789.435 6293.063)"/>
    <rect id="Rectangle_717" data-name="Rectangle 717" class="cls-1" width="5.199" height="12.773" rx="1" transform="translate(796.435 6287.229)"/>
  </g>
</svg>
