<svg xmlns="http://www.w3.org/2000/svg" viewBox="0 0 24.042 19.57">
  <defs>
    <style>
      .cls-1 {
        fill: #fff;
      }
    </style>
  </defs>
  <g id="Group_159" data-name="Group 159" transform="translate(-637 -6280.7)">
    <ellipse id="Ellipse_114" data-name="Ellipse 114" class="cls-1" cx="2.25" cy="2.25" rx="2.25" ry="2.25" transform="translate(637 6280.7)"/>
    <rect id="Rectangle_720" data-name="Rectangle 720" class="cls-1" width="16.487" height="3.435" rx="1" transform="translate(644.554 6281.215)"/>
    <ellipse id="Ellipse_115" data-name="Ellipse 115" class="cls-1" cx="2.25" cy="2.25" rx="2.25" ry="2.25" transform="translate(637 6288.235)"/>
    <rect id="Rectangle_721" data-name="Rectangle 721" class="cls-1" width="16.487" height="3.435" rx="1" transform="translate(644.554 6288.75)"/>
    <ellipse id="Ellipse_116" data-name="Ellipse 116" class="cls-1" cx="2.25" cy="2.25" rx="2.25" ry="2.25" transform="translate(637 6295.771)"/>
    <rect id="Rectangle_722" data-name="Rectangle 722" class="cls-1" width="16.487" height="3.435" rx="1" transform="translate(644.554 6296.286)"/>
  </g>
</svg>
